%YAML 1.1
%TAG !u! tag:unity3d.com,2011:
--- !u!687078895 &4343727234628468602
SpriteAtlas:
  m_ObjectHideFlags: 0
  m_CorrespondingSourceObject: {fileID: 0}
  m_PrefabInstance: {fileID: 0}
  m_PrefabAsset: {fileID: 0}
  m_Name: AtlasSeleccionSituacion
  m_EditorData:
    serializedVersion: 2
    textureSettings:
      serializedVersion: 2
      anisoLevel: 1
      compressionQuality: 50
      maxTextureSize: 2048
      textureCompression: 0
      filterMode: 1
      generateMipMaps: 0
      readable: 0
      crunchedCompression: 0
      sRGB: 1
    platformSettings:
    - serializedVersion: 2
      m_BuildTarget: DefaultTexturePlatform
      m_MaxTextureSize: 4096
      m_ResizeAlgorithm: 0
      m_TextureFormat: -1
      m_TextureCompression: 1
      m_CompressionQuality: 50
      m_CrunchedCompression: 0
      m_AllowsAlphaSplitting: 0
      m_Overridden: 0
      m_AndroidETC2FallbackOverride: 0
    packingSettings:
      serializedVersion: 2
      padding: 4
      blockOffset: 1
      allowAlphaSplitting: 0
      enableRotation: 0
      enableTightPacking: 0
    variantMultiplier: 1
    packables:
    - {fileID: 2800000, guid: 0b5e791ffe26ca94d949705030994ec8, type: 3}
    - {fileID: 2800000, guid: 6624894b848f8fd4581d8032b8b81a26, type: 3}
    - {fileID: 2800000, guid: 03c8a1579be29e44a89d720e49994538, type: 3}
    - {fileID: 2800000, guid: c4b7b56488e54cd40a3661f4f39af091, type: 3}
    - {fileID: 2800000, guid: 34fff343879d05a40ac0466426f55812, type: 3}
    totalSpriteSurfaceArea: 4423097
    bindAsDefault: 1
  m_MasterAtlas: {fileID: 0}
  m_PackedSprites:
  - {fileID: 21300000, guid: 34fff343879d05a40ac0466426f55812, type: 3}
  - {fileID: 21300000, guid: c4b7b56488e54cd40a3661f4f39af091, type: 3}
  - {fileID: 21300000, guid: 03c8a1579be29e44a89d720e49994538, type: 3}
  - {fileID: 21300000, guid: 6624894b848f8fd4581d8032b8b81a26, type: 3}
  - {fileID: 21300000, guid: 0b5e791ffe26ca94d949705030994ec8, type: 3}
  m_PackedSpriteNamesToIndex:
  - P4
  - P3
  - P2
  - P1
  - fondo
  m_Tag: AtlasSeleccionSituacion
  m_IsVariant: 0
